id;pobox;extended_address;street;locality;region;postal_code;country;mail_address_type
1;Benin;Integration synergistic composite;Hammes Keys;Cambodia connecting;Licensed RAM Money Market Account;Buckinghamshire Fort;Bulgaria;Harbors customized Generic
2;hardware deposit parse;Unbranded Unbranded;Victoria Terrace;utilisation demand-driven;synthesize Vatu framework;green;Turks and Caicos Islands;Legacy Western Sahara Plastic
3;scale;synthesizing Refined Wooden Ball fuchsia;Shanahan Fall;Team-oriented;backing up XML;Pizza workforce navigate;Lebanon;Granite
4;Stream Cape parsing;National Concrete;Carter Corners;program directional;multi-byte;Face to face Human;Ukraine;Rustic project black
5;primary Computer;Manager Industrial Public-key;Nienow Union;fuchsia Gloves holistic;protocol;program Customer;Rwanda;Licensed
6;grey Garden;black bypass;Schultz Key;cyan Orchestrator Mongolia;Trinidad and Tobago Dollar;user-centric;Libyan Arab Jamahiriya;Re-engineered Tenge Bedfordshire
7;cross-platform invoice;Up-sized;Maggie Turnpike;cross-platform;transmitter Avon;Developer deposit Intranet;Holy See (Vatican City State);calculating solution
8;web-enabled;Cotton enable;Steuber Prairie;backing up;capacitor Plastic Jewelery;Car;Belarus;XSS Soft
9;migration deposit matrix;EXE;Schaden Heights;Belize Jordanian Dinar convergence;Open-architected compress withdrawal;Computers Fresh SCSI;Guyana;Path
10;Oklahoma Soft virtual;web services open-source Directives;Hellen Grove;Awesome Rubber Hat approach Savings Account;salmon indexing;maximize Money Market Account;Sao Tome and Principe;Mouse
