id;contact_id;fn;n;nickname;bday;mailer;tz;geo_lat;geo_long;title;role;prod_id;rev;sort_string;uid;url;version;class_name
1;Lead Administrator;Cotton connecting Kenyan Shilling;bus India;synthesizing;2021-01-29T04:55:58;Bedfordshire target;94842;29023;63996;Global Bypass generate;Principal;matrices Product Bedfordshire;Optimization neural Michigan;vertical Chair withdrawal;Wooden;https://christian.biz;Incredible;Unbranded utilize yellow
2;3rd generation partnerships software;program;homogeneous Director index;alarm;2021-01-30T00:47:04;capacitor Nebraska Functionality;42259;51207;60847;robust Burg ubiquitous;transmit;channels Strategist;internet solution calculating;Fantastic incentivize Point;Unbranded;http://marianne.net;Tuna Shoes;Personal Loan Account directional Assistant
3;Fully-configurable;Grocery Inverse navigate;Identity;Investment Account Money Market Account;2021-01-29T05:03:31;withdrawal bypass;53955;45942;24743;Dong Steel;invoice Assimilated dynamic;Expanded;deposit Syrian Pound;neutral;redundant Analyst;http://arvilla.net;Executive;quantifying user-centric Colorado
4;Antarctica (the territory South of 6;Music Timor-Leste;back-end Clothing Cordoba Oro;Jamaican Dollar Sausages;2021-01-29T14:39:12;uniform;37248;88246;73807;Clothing Personal Loan Account Cambridgeshire;parsing convergence Investment Account;synergistic Cross-platform;withdrawal Auto Loan Account transmit;Pre-emptive back-end background;needs-based Configuration Intranet;https://giovani.info;engage Jer;Washington gold
5;Granite Home Generic Rubber Pizza;Mission Lilangeni;International;Mills Solomon Islands Dollar;2021-01-29T10:15:59;Salad;16904;74695;77848;Corporate User-friendly South Georgia and the Sout;Research;index program;cyan;Fields Stream purple;override Handmade Fresh Salad;http://tod.name;Future nav;Hungary Soft
6;SMS;Chicken Dale orange;Open-architected Personal Loan Account pink;benchmark Focused;2021-01-29T10:11:11;Shoes Handmade Plastic Salad;46919;65155;95084;Buckinghamshire Cambridgeshire;Buckinghamshire;generate;ubiquitous;Fish;Savings Account Arkansas;http://jessica.biz;Ferry Awes;leverage Belarussian Ruble compress
7;Cheese networks;Bike connect override;cutting-edge;wireless hack array;2021-01-29T16:56:05;Handmade Plastic Tuna Center;91875;90928;4227;programming;Chair;Money Market Account Gloves;connecting client-server;Personal Loan Account foreground Alaska;Internal Sausages Nebraska;https://lou.net;Multi-tier;Luxembourg Ergonomic
8;France Steel empowering;back up Baby Toys;Manors;harness Soft;2021-01-29T15:43:35;Sleek Rubber Gloves;18672;16155;95023;lavender;withdrawal;Kansas Ergonomic;target calculating hack;Small;Licensed digital;https://xavier.org;Refined le;strategy Money Market Account
9;e-business;Credit Card Account yellow;Senior Savings Account Handcrafted Wooden Car;yellow;2021-01-29T17:19:39;Cyprus mobile mint green;12348;39459;87927;Liaison;Steel;program Junction Incredible Frozen Pizza;Tajikistan artificial intelligence enhance;revolutionary;Vietnam Moldova;https://pattie.biz;reboot gen;Generic Metal Tuna Incredible Credit Card Account
10;Incredible Frozen Chicken parsing;Turks and Caicos Islands;Up-sized Chief Auto Loan Account;Car;2021-01-29T14:06:21;Sleek;69830;31074;54119;Refined;pink;Paradigm lavender;Up-sized quantify navigating;Moldovan Leu Borders;Bedfordshire Front-line azure;https://jazmyn.info;Sleek Bran;virtual
