id;data_name;url;inline;contact_types;contact_encoding_types;contact_data;contact_data_content_type
1;Configurat;https://jalyn.net;s;Granite Br;bottom-lin;../fake-data/blob/hipster.png;image/png
2;array;http://ramiro.biz;A;Keyboard C;holistic P;../fake-data/blob/hipster.png;image/png
3;Berkshire ;https://bettye.com;C;Paradigm D;conglomera;../fake-data/blob/hipster.png;image/png
4;plum Ergon;https://albina.info;A;incentiviz;collaborat;../fake-data/blob/hipster.png;image/png
5;Borders in;https://sophie.com;v;Indonesia ;user-facin;../fake-data/blob/hipster.png;image/png
6;e-commerce;https://nora.com;G;Internal P;reciprocal;../fake-data/blob/hipster.png;image/png
7;e-business;http://mireille.info;I;Synergisti;capability;../fake-data/blob/hipster.png;image/png
8;compressin;http://sydnee.biz;V;lavender n;Personal L;../fake-data/blob/hipster.png;image/png
9;Interactio;https://adrian.name;c;Product ye;vortals we;../fake-data/blob/hipster.png;image/png
10;transmitte;https://aidan.name;B;North Dako;parsing Gr;../fake-data/blob/hipster.png;image/png
