{
  "name": "ContactAgent",
  "fields": [
    {
      "fieldName": "uri",
      "fieldType": "String",
      "fieldValidateRules": ["required", "maxlength"],
      "fieldValidateRulesMaxlength": "255"
    }
  ],
  "relationships": [
    {
      "relationshipType": "many-to-one",
      "otherEntityName": "contact",
      "otherEntityRelationshipName": "contactAgent",
      "relationshipName": "contact",
      "otherEntityField": "id"
    }
  ],
  "changelogDate": "20210130023827",
  "entityTableName": "contact_agent",
  "dto": "mapstruct",
  "pagination": "pagination",
  "service": "serviceClass",
  "jpaMetamodelFiltering": true,
  "fluentMethods": true,
  "readOnly": false,
  "embedded": false,
  "clientRootFolder": "",
  "applications": "*"
}
